{
    "config": {
        "chainId": 15,
        "homesteadBlock": 0,
        "eip155Block": 0,
        "eip158Block": 0
    },
    "difficulty": "0x400",
    "coinbase": "0x3333333333333333333333333333333333333333",
    "gasLimit": "5000000",
    "alloc": {
    }
}
